simulation/qsim/Versao1.msim.vcd
$comment
	File created using the following command:
		vcd file Versao1.msim.vcd -direction
$end
$date
	Mon Oct 27 12:46:19 2025
$end
$version
	ModelSim Version 2020.1
$end
$timescale
	1ps
$end

$scope module Debounce_vlg_vec_tst $end
$var reg 1 ! Btn $end
$var reg 1 " Clk $end
$var reg 1 # rst $end
$var wire 1 $ S $end

$scope module i1 $end
$var wire 1 % gnd $end
$var wire 1 & vcc $end
$var wire 1 ' unknown $end
$var tri1 1 ( devclrn $end
$var tri1 1 ) devpor $end
$var tri1 1 * devoe $end
$var wire 1 + ~QUARTUS_CREATED_GND~I_combout $end
$var wire 1 , ~QUARTUS_CREATED_UNVM~~busy $end
$var wire 1 - ~QUARTUS_CREATED_ADC1~~eoc $end
$var wire 1 . ~QUARTUS_CREATED_ADC2~~eoc $end
$var wire 1 / S~output_o $end
$var wire 1 0 Clk~input_o $end
$var wire 1 1 Clk~inputclkctrl_outclk $end
$var wire 1 2 Btn~input_o $end
$var wire 1 3 FF0|s~feeder_combout $end
$var wire 1 4 rst~input_o $end
$var wire 1 5 rst~inputclkctrl_outclk $end
$var wire 1 6 FF0|s~q $end
$var wire 1 7 FF1|s~feeder_combout $end
$var wire 1 8 FF1|s~q $end
$var wire 1 9 FF2|s~feeder_combout $end
$var wire 1 : FF2|s~q $end
$var wire 1 ; FF3|s~feeder_combout $end
$var wire 1 < FF3|s~q $end
$var wire 1 = ValorAntigo|s~q $end
$var wire 1 > and0~combout $end
$upscope $end
$upscope $end
$enddefinitions $end
#0
$dumpvars
1!
0"
0#
0$
0%
1&
x'
1(
1)
1*
0+
z,
z-
z.
0/
00
01
12
13
04
05
06
07
08
09
0:
0;
0<
0=
0>
$end
#50000
0!
1"
10
02
11
03
16
17
#100000
1!
0"
00
12
01
13
#150000
0!
1"
10
02
11
03
18
19
#170000
1!
12
13
#180000
0!
02
03
#190000
1!
12
13
#200000
0"
00
01
#250000
1"
10
11
1:
1;
#300000
0"
00
01
#350000
1"
10
11
1<
#400000
0"
00
01
#450000
1"
10
11
1=
#500000
0"
00
01
#550000
1"
10
11
#600000
0"
00
01
#650000
1"
10
11
#700000
0"
00
01
#750000
1"
10
11
#800000
0"
00
01
#850000
1"
10
11
#900000
0"
00
01
#950000
1"
10
11
#999000
0!
02
03
#1000000
0"
00
01
#1050000
1"
10
11
06
07
#1100000
0"
00
01
#1150000
1"
10
11
08
09
#1200000
0"
00
01
#1250000
1"
10
11
0:
0;
#1300000
0"
00
01
#1350000
1"
10
11
0<
1>
1/
1$
#1400000
0"
00
01
#1450000
1"
10
11
0=
0>
0/
0$
#1500000
0"
00
01
#1550000
1"
10
11
#1600000
0"
00
01
#1650000
1"
10
11
#1700000
0"
00
01
#1750000
1"
10
11
#1760000
1!
12
13
#1800000
0"
00
01
#1850000
1"
10
11
16
17
#1900000
0"
00
01
#1950000
1"
10
11
18
19
#2000000
0"
00
01
#2050000
1"
10
11
1:
1;
#2100000
0"
00
01
#2150000
1"
10
11
1<
#2200000
0"
00
01
#2250000
1"
10
11
1=
#2300000
0"
00
01
#2320000
0!
02
03
#2350000
1"
1!
12
10
11
13
06
07
#2380000
0!
02
03
#2390000
1!
12
13
#2400000
0"
00
01
#2420000
0!
02
03
#2430000
1!
12
13
#2440000
0!
02
03
#2450000
1"
1!
12
10
11
13
08
09
#2500000
0"
00
01
#2550000
1"
10
11
0:
16
0;
17
#2600000
0"
00
01
#2650000
1"
10
11
0<
18
1>
19
1/
1$
#2700000
0"
00
01
#2750000
1"
10
11
0=
1:
0>
1;
0/
0$
#2800000
0"
00
01
#2850000
1"
10
11
1<
#2900000
0"
00
01
#2950000
1"
10
11
1=
#3000000
0"
00
01
#3050000
1"
10
11
#3100000
0"
00
01
#3150000
1"
10
11
#3200000
0"
00
01
#3250000
1"
10
11
#3300000
0"
00
01
#3350000
1"
10
11
#3400000
0"
00
01
#3450000
1"
10
11
#3500000
0"
00
01
#3550000
1"
10
11
#3600000
0"
00
01
#3650000
1"
10
11
#3700000
0"
00
01
#3750000
1"
10
11
#3800000
0"
00
01
#3850000
1"
10
11
#3900000
0"
00
01
#3950000
1"
10
11
#4000000
0"
00
01
#4050000
1"
10
11
#4100000
0"
00
01
#4150000
1"
10
11
#4200000
0"
00
01
#4250000
1"
10
11
#4300000
0"
00
01
#4350000
1"
10
11
#4400000
0!
0"
00
02
01
03
#4450000
1"
10
11
06
07
#4500000
0"
00
01
#4550000
1"
10
11
08
09
#4600000
0"
00
01
#4640000
1!
12
13
#4650000
1"
10
11
0:
16
0;
17
#4700000
0"
00
01
#4750000
1"
10
11
0<
18
1>
19
1/
1$
#4800000
0"
00
01
#4850000
1"
10
11
0=
1:
0>
1;
0/
0$
#4900000
0"
00
01
#4950000
1"
10
11
1<
#5000000
0"
00
01
#5050000
1"
10
11
1=
#5100000
0"
00
01
#5150000
1"
10
11
#5200000
0"
00
01
#5250000
1"
10
11
#5300000
0"
00
01
#5350000
1"
10
11
#5400000
0"
00
01
#5450000
1"
10
11
#5500000
0"
00
01
#5550000
1"
10
11
#5600000
0"
00
01
#5650000
1"
10
11
#5700000
0"
00
01
#5750000
1"
10
11
#5800000
0"
00
01
#5850000
1"
10
11
#5900000
0"
00
01
#5950000
1"
10
11
#6000000
0"
00
01
#6050000
1"
10
11
#6100000
0"
00
01
#6150000
1"
10
11
#6200000
0"
00
01
#6250000
1"
10
11
#6300000
0"
00
01
#6350000
1"
10
11
#6400000
0"
00
01
#6450000
1"
10
11
#6500000
0"
00
01
#6550000
1"
10
11
#6600000
0"
00
01
#6650000
1"
10
11
#6700000
0"
00
01
#6750000
1"
10
11
#6800000
0"
00
01
#6850000
1"
10
11
#6900000
0"
00
01
#6950000
1"
10
11
#7000000
0"
00
01
#7050000
1"
10
11
#7100000
0"
00
01
#7150000
1"
10
11
#7200000
0"
00
01
#7250000
1"
10
11
#7300000
0"
00
01
#7350000
1"
10
11
#7400000
0"
00
01
#7450000
1"
10
11
#7500000
0"
00
01
#7550000
1"
10
11
#7600000
0"
00
01
#7650000
1"
10
11
#7700000
0"
00
01
#7750000
1"
10
11
#7800000
0"
00
01
#7850000
1"
10
11
#7900000
0"
00
01
#7950000
1"
10
11
#8000000
0"
00
01
#8050000
1"
10
11
#8100000
0"
00
01
#8150000
1"
10
11
#8200000
0"
00
01
#8250000
1"
10
11
#8300000
0"
00
01
#8350000
1"
10
11
#8400000
0"
00
01
#8450000
1"
10
11
#8500000
0"
00
01
#8550000
1"
10
11
#8600000
0"
00
01
#8650000
1"
10
11
#8700000
0"
00
01
#8750000
1"
10
11
#8800000
0"
00
01
#8850000
1"
10
11
#8900000
0"
00
01
#8950000
1"
10
11
#9000000
0"
00
01
#9050000
1"
10
11
#9100000
0"
00
01
#9150000
1"
10
11
#9200000
0"
00
01
#9250000
1"
10
11
#9300000
0"
00
01
#9350000
1"
10
11
#9400000
0"
00
01
#9450000
1"
10
11
#9500000
0"
00
01
#9550000
1"
10
11
#9600000
0"
00
01
#9650000
1"
10
11
#9700000
0"
00
01
#9750000
1"
10
11
#9800000
0"
00
01
#9850000
1"
10
11
#9900000
0"
00
01
#9950000
1"
10
11
#10000000
0"
00
01
#10050000
1"
10
11
#10100000
0"
00
01
#10150000
1"
10
11
#10200000
0"
00
01
#10250000
1"
10
11
#10300000
0"
00
01
#10350000
1"
10
11
#10400000
0"
00
01
#10450000
1"
10
11
#10500000
0"
00
01
#10550000
1"
10
11
#10600000
0"
00
01
#10650000
1"
10
11
#10700000
0"
00
01
#10750000
1"
10
11
#10800000
0"
00
01
#10850000
1"
10
11
#10900000
0"
00
01
#10950000
1"
10
11
#11000000
0"
00
01
#11050000
1"
10
11
#11100000
0"
00
01
#11150000
1"
10
11
#11200000
0"
00
01
#11250000
1"
10
11
#11300000
0"
00
01
#11350000
1"
10
11
#11400000
0"
00
01
#11450000
1"
10
11
#11500000
0"
00
01
#11550000
1"
10
11
#11600000
0"
00
01
#11650000
1"
10
11
#11700000
0"
00
01
#11750000
1"
10
11
#11800000
0"
00
01
#11850000
1"
10
11
#11900000
0"
00
01
#11950000
1"
10
11
#12000000
0"
00
01
#12050000
1"
10
11
#12100000
0"
00
01
#12150000
1"
10
11
#12200000
0"
00
01
#12250000
1"
10
11
#12300000
0"
00
01
#12350000
1"
10
11
#12400000
0"
00
01
#12450000
1"
10
11
#12500000
0"
00
01
#12550000
1"
10
11
#12600000
0"
00
01
#12650000
1"
10
11
#12700000
0"
00
01
#12750000
1"
10
11
#12800000
0"
00
01
#12850000
1"
10
11
#12900000
0"
00
01
#12950000
1"
10
11
#13000000
0"
00
01
#13050000
1"
10
11
#13100000
0"
00
01
#13150000
1"
10
11
#13200000
0"
00
01
#13250000
1"
10
11
#13300000
0"
00
01
#13350000
1"
10
11
#13400000
0"
00
01
#13450000
1"
10
11
#13500000
0"
00
01
#13550000
1"
10
11
#13600000
0"
00
01
#13650000
1"
10
11
#13700000
0"
00
01
#13750000
1"
10
11
#13800000
0"
00
01
#13850000
1"
10
11
#13900000
0"
00
01
#13950000
1"
10
11
#14000000
0"
00
01
#14050000
1"
10
11
#14100000
0"
00
01
#14150000
1"
10
11
#14200000
0"
00
01
#14250000
1"
10
11
#14300000
0"
00
01
#14350000
1"
10
11
#14400000
0"
00
01
#14450000
1"
10
11
#14500000
0"
00
01
#14550000
1"
10
11
#14560000
0!
02
03
#14600000
0"
00
01
#14650000
1"
10
11
06
07
#14700000
0"
00
01
#14750000
1"
10
11
08
09
#14800000
0"
00
01
#14850000
1"
10
11
0:
0;
#14900000
0"
00
01
#14950000
1"
10
11
0<
1>
1/
1$
#15000000
0"
00
01
#15050000
1"
10
11
0=
0>
0/
0$
#15100000
0"
00
01
#15150000
1"
10
11
#15200000
0"
00
01
#15250000
1"
10
11
#15300000
0"
00
01
#15350000
1"
10
11
#15400000
0"
00
01
#15450000
1"
10
11
#15500000
0"
00
01
#15550000
1"
10
11
#15600000
0"
00
01
#15650000
1"
10
11
#15700000
0"
00
01
#15750000
1"
10
11
#15800000
0"
00
01
#15850000
1"
10
11
#15900000
0"
00
01
#15950000
1"
10
11
#16000000
0"
00
01
#16050000
1"
10
11
#16100000
0"
00
01
#16150000
1"
10
11
#16200000
0"
00
01
#16250000
1"
10
11
#16300000
0"
00
01
#16350000
1"
10
11
#16400000
0"
00
01
#16450000
1"
10
11
#16500000
0"
00
01
#16550000
1"
10
11
#16600000
0"
00
01
#16650000
1"
10
11
#16700000
0"
00
01
#16750000
1"
10
11
#16800000
0"
00
01
#16850000
1"
10
11
#16900000
0"
00
01
#16950000
1"
10
11
#17000000
0"
00
01
#17050000
1"
10
11
#17100000
0"
00
01
#17150000
1"
10
11
#17200000
0"
00
01
#17250000
1"
10
11
#17300000
0"
00
01
#17350000
1"
10
11
#17400000
0"
00
01
#17450000
1"
10
11
#17500000
0"
00
01
#17550000
1"
10
11
#17600000
0"
00
01
#17650000
1"
10
11
#17700000
0"
00
01
#17750000
1"
10
11
#17800000
0"
00
01
#17850000
1"
10
11
#17900000
0"
00
01
#17950000
1"
10
11
#18000000
0"
00
01
#18050000
1"
10
11
#18100000
0"
00
01
#18150000
1"
10
11
#18200000
0"
00
01
#18250000
1"
10
11
#18300000
0"
00
01
#18350000
1"
10
11
#18400000
0"
00
01
#18450000
1"
10
11
#18500000
0"
00
01
#18550000
1"
10
11
#18600000
0"
00
01
#18650000
1"
10
11
#18700000
0"
00
01
#18750000
1"
10
11
#18800000
0"
00
01
#18850000
1"
10
11
#18900000
0"
00
01
#18950000
1"
10
11
#19000000
0"
00
01
#19050000
1"
10
11
#19100000
0"
00
01
#19150000
1"
10
11
#19200000
0"
00
01
#19250000
1"
10
11
#19300000
0"
00
01
#19350000
1"
10
11
#19400000
0"
00
01
#19450000
1"
10
11
#19500000
0"
00
01
#19550000
1"
10
11
#19600000
0"
00
01
#19650000
1"
10
11
#19700000
0"
00
01
#19750000
1"
10
11
#19800000
0"
00
01
#19850000
1"
10
11
#19900000
0"
00
01
#19950000
1"
10
11
#20000000
0"
00
01
#20050000
1"
10
11
#20100000
0"
00
01
#20150000
1"
10
11
#20200000
0"
00
01
#20250000
1"
10
11
#20300000
0"
00
01
#20350000
1"
10
11
#20400000
0"
00
01
#20450000
1"
10
11
#20500000
0"
00
01
#20550000
1"
10
11
#20600000
0"
00
01
#20650000
1"
10
11
#20700000
0"
00
01
#20750000
1"
10
11
#20800000
0"
00
01
#20850000
1"
10
11
#20900000
0"
00
01
#20950000
1"
10
11
#21000000
0"
00
01
#21050000
1"
10
11
#21100000
0"
00
01
#21150000
1"
10
11
#21200000
0"
00
01
#21250000
1"
10
11
#21300000
0"
00
01
#21350000
1"
10
11
#21400000
0"
00
01
#21450000
1"
10
11
#21500000
0"
00
01
#21550000
1"
10
11
#21600000
0"
00
01
#21650000
1"
10
11
#21700000
0"
00
01
#21750000
1"
10
11
#21800000
0"
00
01
#21850000
1"
10
11
#21900000
0"
00
01
#21950000
1"
10
11
#22000000
0"
00
01
#22050000
1"
10
11
#22100000
0"
00
01
#22150000
1"
10
11
#22200000
0"
00
01
#22250000
1"
10
11
#22300000
0"
00
01
#22350000
1"
10
11
#22400000
0"
00
01
#22450000
1"
10
11
#22500000
0"
00
01
#22550000
1"
10
11
#22600000
0"
00
01
#22650000
1"
10
11
#22700000
0"
00
01
#22750000
1"
10
11
#22800000
0"
00
01
#22850000
1"
10
11
#22900000
0"
00
01
#22950000
1"
10
11
#23000000
0"
00
01
#23050000
1"
10
11
#23100000
0"
00
01
#23150000
1"
10
11
#23200000
0"
00
01
#23250000
1"
10
11
#23300000
0"
00
01
#23350000
1"
10
11
#23400000
0"
00
01
#23450000
1"
10
11
#23500000
0"
00
01
#23550000
1"
10
11
#23600000
0"
00
01
#23650000
1"
10
11
#23700000
0"
00
01
#23750000
1"
10
11
#23800000
0"
00
01
#23850000
1"
10
11
#23900000
0"
00
01
#23950000
1"
10
11
#24000000
0"
00
01
#24050000
1"
10
11
#24100000
0"
00
01
#24150000
1"
10
11
#24200000
0"
00
01
#24250000
1"
10
11
#24300000
0"
00
01
#24350000
1"
10
11
#24400000
0"
00
01
#24450000
1"
10
11
#24500000
0"
00
01
#24550000
1"
10
11
#24600000
0"
00
01
#24650000
1"
10
11
#24700000
0"
00
01
#24750000
1"
10
11
#24800000
0"
00
01
#24850000
1"
10
11
#24900000
0"
00
01
#24950000
1"
10
11
#25000000
0"
00
01
#25050000
1"
10
11
#25100000
0"
00
01
#25150000
1"
10
11
#25200000
0"
00
01
#25250000
1"
10
11
#25300000
0"
00
01
#25350000
1"
10
11
#25400000
0"
00
01
#25450000
1"
10
11
#25500000
0"
00
01
#25550000
1"
10
11
#25600000
0"
00
01
#25650000
1"
10
11
#25700000
0"
00
01
#25750000
1"
10
11
#25800000
0"
00
01
#25850000
1"
10
11
#25900000
0"
00
01
#25950000
1"
10
11
#26000000
0"
00
01
#26050000
1"
10
11
#26100000
0"
00
01
#26150000
1"
10
11
#26200000
0"
00
01
#26250000
1"
10
11
#26300000
0"
00
01
#26350000
1"
10
11
#26400000
0"
00
01
#26450000
1"
10
11
#26500000
0"
00
01
#26550000
1"
10
11
#26600000
0"
00
01
#26650000
1"
10
11
#26700000
0"
00
01
#26750000
1"
10
11
#26800000
0"
00
01
#26850000
1"
10
11
#26900000
0"
00
01
#26950000
1"
10
11
#27000000
0"
00
01
#27050000
1"
10
11
#27100000
0"
00
01
#27150000
1"
10
11
#27200000
0"
00
01
#27250000
1"
10
11
#27300000
0"
00
01
#27350000
1"
10
11
#27400000
0"
00
01
#27450000
1"
10
11
#27500000
0"
00
01
#27550000
1"
10
11
#27600000
0"
00
01
#27650000
1"
10
11
#27700000
0"
00
01
#27750000
1"
10
11
#27800000
0"
00
01
#27850000
1"
10
11
#27900000
0"
00
01
#27950000
1"
10
11
#28000000
0"
00
01
#28050000
1"
10
11
#28100000
0"
00
01
#28150000
1"
10
11
#28200000
0"
00
01
#28250000
1"
10
11
#28300000
0"
00
01
#28350000
1"
10
11
#28400000
0"
00
01
#28450000
1"
10
11
#28500000
0"
00
01
#28550000
1"
10
11
#28600000
0"
00
01
#28650000
1"
10
11
#28700000
0"
00
01
#28750000
1"
10
11
#28800000
1!
0"
00
12
01
13
#28850000
1"
10
11
16
17
#28900000
0"
00
01
#28950000
1"
10
11
18
19
#29000000
0"
00
01
#29050000
1"
10
11
1:
1;
#29100000
0"
00
01
#29150000
1"
10
11
1<
#29200000
0"
00
01
#29250000
1"
10
11
1=
#29300000
0"
00
01
#29350000
1"
10
11
#29400000
0"
00
01
#29450000
1"
10
11
#29500000
0"
00
01
#29550000
1"
10
11
#29600000
0"
00
01
#29650000
1"
10
11
#29700000
0"
00
01
#29750000
1"
10
11
#29800000
0"
00
01
#29850000
1"
10
11
#29900000
0"
00
01
#29950000
1"
10
11
#30000000
0"
00
01
#30050000
1"
10
11
#30100000
0"
00
01
#30150000
1"
10
11
#30200000
0"
00
01
#30250000
1"
10
11
#30300000
0"
00
01
#30350000
1"
10
11
#30400000
0"
00
01
#30450000
1"
10
11
#30500000
0"
00
01
#30550000
1"
10
11
#30600000
0"
00
01
#30650000
1"
10
11
#30700000
0"
00
01
#30750000
1"
10
11
#30800000
0"
00
01
#30850000
1"
10
11
#30900000
0"
00
01
#30950000
1"
10
11
#31000000
0"
00
01
#31050000
1"
10
11
#31100000
0"
00
01
#31150000
1"
10
11
#31200000
0"
00
01
#31250000
1"
10
11
#31300000
0"
00
01
#31350000
1"
10
11
#31400000
0"
00
01
#31450000
1"
10
11
#31500000
0"
00
01
#31550000
1"
10
11
#31600000
0"
00
01
#31650000
1"
10
11
#31700000
0"
00
01
#31750000
1"
10
11
#31800000
0"
00
01
#31850000
1"
10
11
#31900000
0"
00
01
#31950000
1"
10
11
#32000000
0"
00
01
#32050000
1"
10
11
#32100000
0"
00
01
#32150000
1"
10
11
#32200000
0"
00
01
#32250000
1"
10
11
#32300000
0"
00
01
#32350000
1"
10
11
#32400000
0"
00
01
#32450000
1"
10
11
#32500000
0"
00
01
#32550000
1"
10
11
#32600000
0"
00
01
#32650000
1"
10
11
#32700000
0"
00
01
#32750000
1"
10
11
#32800000
0"
00
01
#32850000
1"
10
11
#32900000
0"
00
01
#32950000
1"
10
11
#33000000
0"
00
01
#33050000
1"
10
11
#33100000
0"
00
01
#33150000
1"
10
11
#33200000
0"
00
01
#33250000
1"
10
11
#33300000
0"
00
01
#33350000
1"
10
11
#33400000
0"
00
01
#33450000
1"
10
11
#33500000
0"
00
01
#33550000
1"
10
11
#33600000
0"
00
01
#33650000
1"
10
11
#33700000
0"
00
01
#33750000
1"
10
11
#33800000
0"
00
01
#33850000
1"
10
11
#33900000
0"
00
01
#33950000
1"
10
11
#34000000
0"
00
01
#34050000
1"
10
11
#34100000
0"
00
01
#34150000
1"
10
11
#34200000
0"
00
01
#34250000
1"
10
11
#34300000
0"
00
01
#34350000
1"
10
11
#34400000
0"
00
01
#34450000
1"
10
11
#34500000
0"
00
01
#34550000
1"
10
11
#34600000
0"
00
01
#34650000
1"
10
11
#34700000
0"
00
01
#34750000
1"
10
11
#34800000
0"
00
01
#34850000
1"
10
11
#34900000
0"
00
01
#34950000
1"
10
11
#35000000
0"
00
01
#35050000
1"
10
11
#35100000
0"
00
01
#35150000
1"
10
11
#35200000
0"
00
01
#35250000
1"
10
11
#35300000
0"
00
01
#35350000
1"
10
11
#35400000
0"
00
01
#35450000
1"
10
11
#35500000
0"
00
01
#35550000
1"
10
11
#35600000
0"
00
01
#35650000
1"
10
11
#35700000
0"
00
01
#35750000
1"
10
11
#35800000
0"
00
01
#35850000
1"
10
11
#35900000
0"
00
01
#35950000
1"
10
11
#36000000
0"
00
01
#36050000
1"
10
11
#36100000
0"
00
01
#36150000
1"
10
11
#36200000
0"
00
01
#36250000
1"
10
11
#36300000
0"
00
01
#36350000
1"
10
11
#36400000
0"
00
01
#36450000
1"
10
11
#36500000
0"
00
01
#36550000
1"
10
11
#36600000
0"
00
01
#36650000
1"
10
11
#36700000
0"
00
01
#36750000
1"
10
11
#36800000
0"
00
01
#36850000
1"
10
11
#36900000
0"
00
01
#36950000
1"
10
11
#37000000
0"
00
01
#37050000
1"
10
11
#37100000
0"
00
01
#37150000
1"
10
11
#37200000
0"
00
01
#37250000
1"
10
11
#37300000
0"
00
01
#37350000
1"
10
11
#37400000
0"
00
01
#37450000
1"
10
11
#37500000
0"
00
01
#37550000
1"
10
11
#37600000
0"
00
01
#37650000
1"
10
11
#37700000
0"
00
01
#37750000
1"
10
11
#37800000
0"
00
01
#37850000
1"
10
11
#37900000
0"
00
01
#37950000
1"
10
11
#38000000
0"
00
01
#38050000
1"
10
11
#38100000
0"
00
01
#38150000
1"
10
11
#38200000
0"
00
01
#38250000
1"
10
11
#38300000
0"
00
01
#38350000
1"
10
11
#38400000
0"
00
01
#38450000
1"
10
11
#38500000
0"
00
01
#38550000
1"
10
11
#38600000
0"
00
01
#38650000
1"
10
11
#38700000
0"
00
01
#38750000
1"
10
11
#38800000
0"
00
01
#38850000
1"
10
11
#38900000
0"
00
01
#38950000
1"
10
11
#39000000
0"
00
01
#39050000
1"
10
11
#39100000
0"
00
01
#39150000
1"
10
11
#39200000
0"
00
01
#39250000
1"
10
11
#39300000
0"
00
01
#39350000
1"
10
11
#39400000
0"
00
01
#39450000
1"
10
11
#39500000
0"
00
01
#39550000
1"
10
11
#39600000
0"
00
01
#39650000
1"
10
11
#39700000
0"
00
01
#39750000
1"
10
11
#39800000
0"
00
01
#39850000
1"
10
11
#39900000
0"
00
01
#39950000
1"
10
11
#40000000
0"
00
01
#40050000
1"
10
11
#40100000
0"
00
01
#40150000
1"
10
11
#40200000
0"
00
01
#40250000
1"
10
11
#40300000
0"
00
01
#40350000
1"
10
11
#40400000
0"
00
01
#40450000
1"
10
11
#40500000
0"
00
01
#40550000
1"
10
11
#40600000
0"
00
01
#40650000
1"
10
11
#40700000
0"
00
01
#40750000
1"
10
11
#40800000
0"
00
01
#40850000
1"
10
11
#40900000
0"
00
01
#40950000
1"
10
11
#41000000
0"
00
01
#41050000
1"
10
11
#41100000
0"
00
01
#41150000
1"
10
11
#41200000
0"
00
01
#41250000
1"
10
11
#41300000
0"
00
01
#41350000
1"
10
11
#41400000
0"
00
01
#41450000
1"
10
11
#41500000
0"
00
01
#41550000
1"
10
11
#41600000
0"
00
01
#41650000
1"
10
11
#41700000
0"
00
01
#41750000
1"
10
11
#41800000
0"
00
01
#41850000
1"
10
11
#41900000
0"
00
01
#41950000
1"
10
11
#42000000
0"
00
01
#42050000
1"
10
11
#42100000
0"
00
01
#42150000
1"
10
11
#42200000
0"
00
01
#42250000
1"
10
11
#42300000
0"
00
01
#42350000
1"
10
11
#42400000
0"
00
01
#42450000
1"
10
11
#42500000
0"
00
01
#42550000
1"
10
11
#42600000
0"
00
01
#42650000
1"
10
11
#42700000
0"
00
01
#42750000
1"
10
11
#42800000
0"
00
01
#42850000
1"
10
11
#42900000
0"
00
01
#42950000
1"
10
11
#43000000
0"
00
01
#43050000
1"
10
11
#43100000
0"
00
01
#43150000
1"
10
11
#43200000
0"
00
01
#43250000
1"
10
11
#43300000
0"
00
01
#43350000
1"
10
11
#43400000
0"
00
01
#43450000
1"
10
11
#43500000
0"
00
01
#43550000
1"
10
11
#43600000
0"
00
01
#43650000
1"
10
11
#43700000
0"
00
01
#43750000
1"
10
11
#43800000
0"
00
01
#43850000
1"
10
11
#43900000
0"
00
01
#43950000
1"
10
11
#44000000
0"
00
01
#44050000
1"
10
11
#44100000
0"
00
01
#44150000
1"
10
11
#44200000
0"
00
01
#44250000
1"
10
11
#44300000
0"
00
01
#44350000
1"
10
11
#44400000
0"
00
01
#44450000
1"
10
11
#44500000
0"
00
01
#44550000
1"
10
11
#44600000
0"
00
01
#44650000
1"
10
11
#44700000
0"
00
01
#44750000
1"
10
11
#44800000
0"
00
01
#44850000
1"
10
11
#44900000
0"
00
01
#44950000
1"
10
11
#45000000
0"
00
01
#45050000
1"
10
11
#45100000
0"
00
01
#45150000
1"
10
11
#45200000
0"
00
01
#45250000
1"
10
11
#45300000
0"
00
01
#45350000
1"
10
11
#45400000
0"
00
01
#45450000
1"
10
11
#45500000
0"
00
01
#45550000
1"
10
11
#45600000
0"
00
01
#45650000
1"
10
11
#45700000
0"
00
01
#45750000
1"
10
11
#45800000
0"
00
01
#45850000
1"
10
11
#45900000
0"
00
01
#45950000
1"
10
11
#46000000
0"
00
01
#46050000
1"
10
11
#46100000
0"
00
01
#46150000
1"
10
11
#46200000
0"
00
01
#46250000
1"
10
11
#46300000
0"
00
01
#46350000
1"
10
11
#46400000
0"
00
01
#46450000
1"
10
11
#46500000
0"
00
01
#46550000
1"
10
11
#46600000
0"
00
01
#46650000
1"
10
11
#46700000
0"
00
01
#46750000
1"
10
11
#46800000
0"
00
01
#46850000
1"
10
11
#46900000
0"
00
01
#46950000
1"
10
11
#47000000
0"
00
01
#47050000
1"
10
11
#47100000
0"
00
01
#47150000
1"
10
11
#47200000
0"
00
01
#47250000
1"
10
11
#47300000
0"
00
01
#47350000
1"
10
11
#47400000
0"
00
01
#47450000
1"
10
11
#47500000
0"
00
01
#47550000
1"
10
11
#47600000
0"
00
01
#47650000
1"
10
11
#47700000
0"
00
01
#47750000
1"
10
11
#47800000
0"
00
01
#47850000
1"
10
11
#47900000
0"
00
01
#47950000
1"
10
11
#48000000
0"
00
01
#48050000
1"
10
11
#48100000
0"
00
01
#48150000
1"
10
11
#48200000
0"
00
01
#48250000
1"
10
11
#48300000
0"
00
01
#48350000
1"
10
11
#48400000
0"
00
01
#48450000
1"
10
11
#48500000
0"
00
01
#48550000
1"
10
11
#48600000
0"
00
01
#48650000
1"
10
11
#48700000
0"
00
01
#48750000
1"
10
11
#48800000
0"
00
01
#48850000
1"
10
11
#48900000
0"
00
01
#48950000
1"
10
11
#49000000
0"
00
01
#49050000
1"
10
11
#49100000
0"
00
01
#49150000
1"
10
11
#49200000
0"
00
01
#49250000
1"
10
11
#49300000
0"
00
01
#49350000
1"
10
11
#49400000
0"
00
01
#49450000
1"
10
11
#49500000
0"
00
01
#49550000
1"
10
11
#49600000
0"
00
01
#49650000
1"
10
11
#49700000
0"
00
01
#49750000
1"
10
11
#49800000
0"
00
01
#49850000
1"
10
11
#49900000
0"
00
01
#49950000
1"
10
11
#50000000
0"
00
01
#50050000
1"
10
11
#50100000
0"
00
01
#50150000
1"
10
11
#50200000
0"
00
01
#50250000
1"
10
11
#50300000
0"
00
01
#50350000
1"
10
11
#50400000
0"
00
01
#50450000
1"
10
11
#50500000
0"
00
01
#50550000
1"
10
11
#50560000
0!
02
03
#50600000
0"
00
01
#50650000
1"
10
11
06
07
#50700000
0"
00
01
#50750000
1"
10
11
08
09
#50800000
0"
00
01
#50850000
1"
10
11
0:
0;
#50900000
0"
00
01
#50950000
1"
10
11
0<
1>
1/
1$
#51000000
0"
00
01
#51050000
1"
10
11
0=
0>
0/
0$
#51100000
0"
00
01
#51150000
1"
10
11
#51200000
1!
0"
00
12
01
13
#51250000
1"
10
11
16
17
#51280000
0!
02
03
#51300000
0"
00
01
#51350000
1"
10
11
18
06
19
07
#51360000
1!
12
13
#51400000
0"
00
01
#51440000
0!
02
03
#51450000
1"
10
11
1:
08
1;
09
#51500000
0"
00
01
#51550000
1"
10
11
1<
0:
0;
#51600000
1!
0"
00
12
01
13
#51650000
1"
10
11
1=
0<
16
1>
17
1/
1$
#51680000
0!
02
03
#51700000
0"
00
01
#51750000
1"
10
11
0=
18
06
0>
19
07
0/
0$
#51760000
1!
12
13
#51800000
0"
00
01
#51850000
1"
10
11
1:
08
16
1;
09
17
#51900000
0"
00
01
#51950000
1"
10
11
1<
0:
18
0;
19
#52000000
0"
00
01
#52050000
1"
10
11
1=
0<
1:
1>
1;
1/
1$
#52100000
0"
00
01
#52150000
1"
10
11
0=
1<
0>
0/
0$
#52200000
0"
00
01
#52250000
1"
10
11
1=
#52300000
0"
00
01
#52350000
1"
10
11
#52400000
0"
00
01
#52450000
1"
10
11
#52500000
0"
00
01
#52550000
1"
10
11
#52600000
0"
00
01
#52650000
1"
10
11
#52700000
0"
00
01
#52750000
1"
10
11
#52800000
0"
00
01
#52850000
1"
10
11
#52900000
0"
00
01
#52950000
1"
10
11
#53000000
0"
00
01
#53050000
1"
10
11
#53100000
0"
00
01
#53150000
1"
10
11
#53200000
0"
00
01
#53250000
1"
10
11
#53300000
0"
00
01
#53350000
1"
10
11
#53400000
0"
00
01
#53450000
1"
10
11
#53500000
0"
00
01
#53550000
1"
10
11
#53600000
0"
00
01
#53650000
1"
10
11
#53700000
0"
00
01
#53750000
1"
10
11
#53800000
0"
00
01
#53850000
1"
10
11
#53900000
0"
00
01
#53950000
1"
10
11
#54000000
0"
00
01
#54050000
1"
10
11
#54100000
0"
00
01
#54150000
1"
10
11
#54200000
0"
00
01
#54250000
1"
10
11
#54300000
0"
00
01
#54350000
1"
10
11
#54400000
0"
00
01
#54450000
1"
10
11
#54500000
0"
00
01
#54550000
1"
10
11
#54600000
0"
00
01
#54650000
1"
10
11
#54700000
0"
00
01
#54750000
1"
10
11
#54800000
0"
00
01
#54850000
1"
10
11
#54900000
0"
00
01
#54950000
1"
10
11
#55000000
0"
00
01
#55050000
1"
10
11
#55100000
0"
00
01
#55150000
1"
10
11
#55200000
0"
00
01
#55250000
1"
10
11
#55300000
0"
00
01
#55350000
1"
10
11
#55400000
0"
00
01
#55450000
1"
10
11
#55500000
0"
00
01
#55550000
1"
10
11
#55600000
0"
00
01
#55650000
1"
10
11
#55700000
0"
00
01
#55750000
1"
10
11
#55800000
0"
00
01
#55850000
1"
10
11
#55900000
0"
00
01
#55950000
1"
10
11
